<svg xmlns="http://www.w3.org/2000/svg" width="115.362" height="114.549" viewBox="0 0 115.362 114.549">
    <defs>
        <style>
            .cls-1{fill:#f1f4ff}.cls-2{fill:#232323;opacity:.15}.cls-3{fill:#fff}.cls-4{fill:#5d6b9f}.cls-5{fill:#c7d1f6}.cls-6{fill:#99a5d4}.cls-7{fill:#b3bfec}.cls-8{fill:#363636;opacity:.2}.cls-9{fill:#f9f9f9}.cls-10{fill:#61d5df}
        </style>
    </defs>
    <g id="Group_4697" transform="translate(-399 -393.334)">
        <path id="Path_18690" d="M512.943 428.412c-4.3-25.9-34.472-39.534-60.193-33.767-28.527 6.4-42.726 34.67-45.063 39.546-8.132 16.965-15.11 47.822 1.215 63.3 18.143 17.2 51.686 2.711 67.949-8.452 4.263-2.929 41.323-29.085 36.092-60.627z" class="cls-1"/>
        <g id="Group_4696" transform="translate(416.34 407.112)">
            <path id="Path_18691" d="M712.536 609.082l-54.96-14.221a5.046 5.046 0 0 0-6.142 3.617l-18.253 70.542a5.046 5.046 0 0 0 3.617 6.143l54.96 14.221a5.046 5.046 0 0 0 6.142-3.617l18.253-70.542a5.046 5.046 0 0 0-3.617-6.143z" class="cls-2" transform="translate(-631.256 -592.039)"/>
            <g id="Group_4694">
                <g id="Group_4689">
                    <path id="Path_18692" d="M678.035 663.838l-54.96-14.221a4.355 4.355 0 0 1-3.125-5.307l18.25-70.542a4.355 4.355 0 0 1 5.307-3.125l43.253 11.192 11.707 3.029a4.355 4.355 0 0 1 3.125 5.307l-18.253 70.542a4.355 4.355 0 0 1-5.304 3.125z" class="cls-3" transform="translate(-619.124 -569.818)"/>
                    <path id="Path_18693" d="M670.16 656.8l-54.96-14.224a5.046 5.046 0 0 1-3.617-6.143l18.253-70.541a5.046 5.046 0 0 1 6.142-3.617l54.96 14.221a5.046 5.046 0 0 1 3.617 6.142L676.3 653.18a5.046 5.046 0 0 1-6.14 3.62zm-34.525-93.2a3.674 3.674 0 0 0-4.472 2.634l-18.253 70.543a3.674 3.674 0 0 0 2.633 4.473l54.96 14.221a3.674 3.674 0 0 0 4.472-2.634l18.254-70.537a3.674 3.674 0 0 0-2.634-4.472z" class="cls-4" transform="translate(-611.422 -562.114)"/>
                </g>
                <g id="Group_4693" transform="translate(28.746 15.419)">
                    <path id="Path_18722" d="M16.828 0A16.828 16.828 0 1 1 0 16.828 16.828 16.828 0 0 1 16.828 0z" class="cls-1"/>
                    <g id="Group_4692" transform="translate(5.405 1.054)">
                        <path id="Path_18694" d="M1046.339 1055.346a14.229 14.229 0 0 1-7.361.908c-.186-.026-.371-.057-.559-.092a.909.909 0 0 1-.108-.024c-.406-.074-.81-.17-1.214-.283-.2-.057-.408-.119-.6-.187-.037-.01-.073-.023-.11-.033-.217-.074-.434-.152-.644-.237-.374-.145-.736-.3-1.089-.479a13.866 13.866 0 0 1-2.265-1.388 14.3 14.3 0 0 1-2.6-2.521 8.084 8.084 0 0 1 5.732-2.6 8.089 8.089 0 0 1 1.133.057h.047a8.181 8.181 0 0 1 1.005.194l2.824.731a8.119 8.119 0 0 1 .974.318c.011.007.028.011.039.019a8.085 8.085 0 0 1 1.022.5 8.065 8.065 0 0 1 3.774 5.117z" class="cls-4" transform="translate(-1029.786 -1025.182)"/>
                        <path id="Path_18695" d="M1114.883 1015.936l-.693 2.678a2.561 2.561 0 0 1-4.888-1.265l.693-2.678a1.913 1.913 0 0 1 .826-1.119 2.128 2.128 0 0 1 .3-.166 2.517 2.517 0 0 1 .647-.2 2.923 2.923 0 0 1 2.288.592 2.519 2.519 0 0 1 .467.488l.02.028a2.131 2.131 0 0 1 .161.264 1.913 1.913 0 0 1 .179 1.378z" class="cls-5" transform="translate(-1102.758 -992.799)"/>
                        <path id="Path_18696" d="M1096.255 852.448l-1.009 3.9a6.607 6.607 0 0 1-5.739 4.9l-.266 1.029a6.518 6.518 0 0 1-2.283-.177l-.523-.135a6.507 6.507 0 0 1-2.082-.953l.266-1.029a6.608 6.608 0 0 1-2.642-7.07l1.009-3.9a6.605 6.605 0 0 1 8.014-4.693l.523.135a6.546 6.546 0 0 1 3.6 2.416 6.585 6.585 0 0 1 1.132 5.577z" class="cls-6" transform="translate(-1077.524 -837.564)"/>
                        <path id="Path_18697" d="M1096.511 839.873l-1.267 4.9a6.593 6.593 0 0 1-8.022 4.724l-.523-.135a6.49 6.49 0 0 1-2.082-.953 6.607 6.607 0 0 1-2.643-7.069l1.26-4.872c.018-.069.036-.137.057-.2a6.6 6.6 0 0 1 7.972-4.548l.523.135a6.6 6.6 0 0 1 4.724 8.022z" class="cls-5" transform="translate(-1077.522 -825.987)"/>
                        <g id="Group_4690" transform="translate(17.662 13.912)">
                            <path id="Path_18698" d="M1249.356 937.547a2.637 2.637 0 0 1-3.214 1.893l1.321-5.106a2.622 2.622 0 0 1 .945.461 2.638 2.638 0 0 1 .948 2.752z" class="cls-5" transform="translate(-1246.143 -934.333)"/>
                            <path id="Path_18699" d="M1251.212 948.232a1.633 1.633 0 0 1-1.99 1.172l.818-3.162a1.633 1.633 0 0 1 1.172 1.99z" class="cls-6" transform="translate(-1248.971 -945.27)"/>
                        </g>
                        <path id="Path_18700" d="M1107.054 1050.241l-3.593 6.018c-.186-.026-.371-.056-.559-.092a.932.932 0 0 1-.108-.023c-.406-.074-.81-.17-1.214-.283-.2-.057-.407-.119-.6-.187-.037-.009-.073-.023-.11-.032-.218-.074-.434-.152-.644-.237l-.221-6.987 1.347.349.04.067 1.559 2.747 2.691-1.647.067-.04z" class="cls-7" transform="translate(-1094.268 -1025.191)"/>
                        <g id="Group_4691" transform="translate(2.416 10.395)">
                            <path id="Path_18701" d="M1062.674 891.329l-1.321 5.106a2.637 2.637 0 0 1 .731-5.19c.042 0 .084 0 .126.007l.066.008a2.552 2.552 0 0 1 .398.069z" class="cls-5" transform="translate(-1059.376 -891.245)"/>
                            <path id="Path_18702" d="M1071.728 904.772a1.633 1.633 0 0 0 1.172 1.99l.818-3.162a1.633 1.633 0 0 0-1.99 1.172z" class="cls-6" transform="translate(-1070.672 -902.544)"/>
                        </g>
                        <path id="Path_18704" d="M1145.585 842.495l-1.267 4.9a6.544 6.544 0 0 1-2.787 3.86 22.028 22.028 0 0 0 3.141-10.239c-.125-2.614-4.307-2.509-7.726-3.3-2.528-.589-1.735-2.137-1.149-2.9a4.333 4.333 0 0 1 .387-.445l.4.118 7.787 2.293a6.579 6.579 0 0 1 1.214 5.713z" class="cls-7" transform="translate(-1126.596 -828.609)"/>
                        <path id="Path_18705" d="M1101.048 767.138c-3.874-.508-1.468-3.233-1.468-3.233-2.041.556-5.127 3.09-4.5 5.766-1.527.725-2.224 3.432-2.224 3.432l-.31 1.2a3.89 3.89 0 0 1 .59.083 7.084 7.084 0 0 1 2.528-3.571c1.505 1.712 5.3 1.851 8.311 2.131 3.536.33 2.43 4.874 2.43 4.874a4.1 4.1 0 0 1 .949.464c3.56-7.86-2.432-10.637-6.306-11.146z" class="cls-4" transform="translate(-1087.42 -763.905)"/>
                        <path id="Path_18706" d="M1114.29 1088.684l-.427 2.7a.952.952 0 0 1-.108-.023c-.406-.074-.81-.17-1.215-.284-.2-.057-.407-.118-.6-.187l.938-2.574-.022-.019v-.005a.234.234 0 0 1-.065-.07.865.865 0 0 1-.193-.794.782.782 0 0 1 .06-.164l.027-.054a.109.109 0 0 0 .015-.027.9.9 0 0 1 .977-.391l.665.172a.827.827 0 0 1 .3.142.885.885 0 0 1 .354.578.821.821 0 0 1-.007.3.344.344 0 0 1-.013.067v.008a.883.883 0 0 1-.686.625z" class="cls-8" transform="translate(-1105.23 -1060.406)"/>
                        <path id="Path_18707" d="M1112.519 1099.038c-.406-.074-.81-.17-1.214-.284-.2-.057-.407-.118-.6-.187-.037-.01-.073-.023-.11-.033l.953-2.618v-.017l.285-.78 1.256.325-.133.838z" class="cls-4" transform="translate(-1103.995 -1068.082)"/>
                        <path id="Path_18708" d="M1119.74 1087.689l-.666-.172a.889.889 0 0 1-.636-1.08.889.889 0 0 1 1.08-.636l.666.172a.89.89 0 0 1 .636 1.08.889.889 0 0 1-1.08.636z" class="cls-4" transform="translate(-1111.176 -1059.497)"/>
                        <path id="Path_18709" d="M1136.055 1072.105l1.549 1.836 2.562-3.175z" class="cls-8" transform="translate(-1127.38 -1045.717)"/>
                        <path id="Path_18710" d="M1140.165 1064.377l-2.562 3.04-1.548-1.7 2.762-1.688.36-.219z" class="cls-9" transform="translate(-1127.38 -1039.327)"/>
                        <path id="Path_18711" d="M1100 1048.411l.682 4.014 2.261-.85z" class="cls-8" transform="translate(-1094.266 -1025.187)"/>
                        <path id="Path_18712" d="M1102.941 1051.381l-2.177.738-.766-3.9 1.14-.017.208.366z" class="cls-9" transform="translate(-1094.266 -1024.993)"/>
                    </g>
                </g>
                <path id="Path_18713" d="M808.851 1166.5l-17.335-4.485a1.506 1.506 0 0 1-1.077-1.829 1.506 1.506 0 0 1 1.829-1.077l17.332 4.491a1.506 1.506 0 0 1 1.077 1.829 1.506 1.506 0 0 1-1.826 1.071z" class="cls-10" transform="translate(-775.781 -1110.333)"/>
                <path id="Path_18714" d="M794.461 1245.327l-22.964-5.942a1.505 1.505 0 0 1-1.077-1.829 1.506 1.506 0 0 1 1.829-1.077l22.964 5.942a1.505 1.505 0 0 1 1.077 1.829 1.505 1.505 0 0 1-1.829 1.077z" class="cls-1" transform="translate(-757.396 -1181.385)"/>
                <path id="Path_18715" d="M786.142 1325.723l-34.665-8.97a1.506 1.506 0 0 1-1.077-1.83 1.506 1.506 0 0 1 1.829-1.077l34.665 8.97a1.506 1.506 0 0 1 1.077 1.83 1.506 1.506 0 0 1-1.829 1.077z" class="cls-1" transform="translate(-739.011 -1252.438)"/>
                <path id="Path_18716" d="M777.533 1406.044l-46.076-11.923a1.506 1.506 0 0 1-1.077-1.829 1.506 1.506 0 0 1 1.829-1.077l46.076 11.923a1.505 1.505 0 0 1 1.077 1.829 1.506 1.506 0 0 1-1.829 1.077z" class="cls-1" transform="translate(-720.625 -1323.49)"/>
                <path id="Path_18717" d="M1137.438 1334.075l-17.644-4.565a1.506 1.506 0 0 1-1.077-1.829 1.505 1.505 0 0 1 1.829-1.077l17.644 4.565a1.506 1.506 0 0 1 1.077 1.829 1.505 1.505 0 0 1-1.829 1.077z" class="cls-1" transform="translate(-1077.262 -1264.152)"/>
            </g>
            <path id="Path_18718" d="M1313.8 1179.035a.57.57 0 0 1-.026-1.139 19.179 19.179 0 0 0 2.925-.364.57.57 0 1 1 .227 1.116 20.324 20.324 0 0 1-3.1.385zm-3.032-.106a.6.6 0 0 1-.068 0 17.858 17.858 0 0 1-3.069-.638.57.57 0 0 1 .331-1.091 16.643 16.643 0 0 0 2.872.6.57.57 0 0 1-.066 1.135zm8.966-1.094a.57.57 0 0 1-.2-1.1 19.361 19.361 0 0 0 2.684-1.219.57.57 0 0 1 .55 1 20.535 20.535 0 0 1-2.842 1.291.567.567 0 0 1-.196.028zm-14.745-.672a.562.562 0 0 1-.264-.066 16.6 16.6 0 0 1-2.629-1.717.57.57 0 1 1 .71-.891 15.475 15.475 0 0 0 2.448 1.6.57.57 0 0 1-.265 1.074zm20.041-2.255a.57.57 0 0 1-.352-1.017 16.432 16.432 0 0 0 2.137-2.006.57.57 0 1 1 .852.756 17.572 17.572 0 0 1-2.285 2.146.567.567 0 0 1-.356.121zm-24.773-1.5a.569.569 0 0 1-.428-.193 20.121 20.121 0 0 1-1.871-2.5.57.57 0 0 1 .962-.61 18.9 18.9 0 0 0 1.764 2.361.57.57 0 0 1-.427.946zm28.762-3.031a.57.57 0 0 1-.493-.855c.179-.31.347-.629.5-.948a12.941 12.941 0 0 0 .667-1.713.57.57 0 0 1 1.088.339 14.029 14.029 0 0 1-.727 1.864c-.165.346-.348.692-.542 1.027a.57.57 0 0 1-.497.286zm-32.021-2.075a.57.57 0 0 1-.519-.334 22.246 22.246 0 0 1-1.09-2.926.57.57 0 1 1 1.094-.318 21.073 21.073 0 0 0 1.033 2.773.569.569 0 0 1-.283.754.563.563 0 0 1-.24.049zm33.858-3.671a.655.655 0 0 1-.065 0 .57.57 0 0 1-.5-.631 17.422 17.422 0 0 0 .111-1.972c0-.32-.009-.645-.026-.966a.57.57 0 1 1 1.138-.062c.019.341.028.688.028 1.029a18.588 18.588 0 0 1-.119 2.1.57.57 0 0 1-.571.501zm-8.184-2.516a12.225 12.225 0 0 1-2.3-.206.57.57 0 0 1 .215-1.119 11.1 11.1 0 0 0 2.085.185c.281 0 .55-.009.8-.023a.57.57 0 0 1 .065 1.138c-.275.01-.566.025-.87.025zm3.818-.549a.57.57 0 0 1-.179-1.111 10.224 10.224 0 0 0 2.567-1.28.57.57 0 0 1 .645.939 11.355 11.355 0 0 1-2.853 1.423.574.574 0 0 1-.185.028zm-8.8-.794a.568.568 0 0 1-.339-.112 5.4 5.4 0 0 1-1.526-1.743 5.86 5.86 0 0 1-.419-.962.57.57 0 0 1 1.081-.361 4.679 4.679 0 0 0 .337.773 4.265 4.265 0 0 0 1.206 1.377.57.57 0 0 1-.34 1.027zm12.824-2.179a.57.57 0 0 1-.554-.44 13.8 13.8 0 0 0-.946-2.754.57.57 0 0 1 1.03-.487 14.589 14.589 0 0 1 .886 2.427.585.585 0 0 1 .066-.1 9.168 9.168 0 0 0 1.188-1.837c.1-.2.185-.4.266-.608a.57.57 0 1 1 1.061.415c-.091.234-.193.466-.3.69a10.318 10.318 0 0 1-1.336 2.066.99.99 0 0 0-1.229.612.569.569 0 0 1-.133.015zm-14.77-3.249a.57.57 0 0 1-.562-.668 6.334 6.334 0 0 1 1.371-3 .57.57 0 1 1 .87.736 5.193 5.193 0 0 0-1.119 2.464.57.57 0 0 1-.561.467zm12.125-2.151a.568.568 0 0 1-.422-.187 6.83 6.83 0 0 0-1.857-1.464c-.123-.064-.25-.127-.383-.186a.57.57 0 1 1 .466-1.04q.232.1.448.218a7.957 7.957 0 0 1 2.169 1.706.57.57 0 0 1-.422.953zm5.757-.578h-.038a.57.57 0 0 1-.531-.606q.023-.348.023-.7a11.724 11.724 0 0 0-.21-2.18.57.57 0 0 1 1.12-.212 12.9 12.9 0 0 1 .229 2.392q0 .391-.025.775a.57.57 0 0 1-.569.531zm-14.124-1.637a.57.57 0 0 1-.172-1.113 8.464 8.464 0 0 1 3.222-.33.57.57 0 1 1-.091 1.136 7.332 7.332 0 0 0-2.787.281.572.572 0 0 1-.174.025zm13.045-4.287a.57.57 0 0 1-.525-.349 16.033 16.033 0 0 0-1.384-2.581.57.57 0 0 1 .952-.626 17.179 17.179 0 0 1 1.483 2.766.57.57 0 0 1-.525.791zm-3.31-5.059a.568.568 0 0 1-.418-.182 19.3 19.3 0 0 0-2.166-2 .57.57 0 1 1 .708-.893 20.45 20.45 0 0 1 2.294 2.118.569.569 0 0 1-.418.957z" class="cls-2" transform="translate(-1239.53 -1091.386)"/>
            <path id="Path_18719" d="M1318.819 1160.47a.57.57 0 0 1-.026-1.139 19.14 19.14 0 0 0 2.925-.363.57.57 0 1 1 .226 1.117 20.284 20.284 0 0 1-3.1.385zm-3.032-.106a.525.525 0 0 1-.068 0 17.8 17.8 0 0 1-3.068-.638.57.57 0 0 1 .33-1.09 16.728 16.728 0 0 0 2.872.6.57.57 0 0 1-.066 1.135zm8.966-1.093a.57.57 0 0 1-.2-1.1 19.43 19.43 0 0 0 2.684-1.22.57.57 0 0 1 .549 1 20.618 20.618 0 0 1-2.842 1.292.567.567 0 0 1-.191.028zm-14.745-.672a.568.568 0 0 1-.264-.065 16.588 16.588 0 0 1-2.629-1.717.57.57 0 0 1 .711-.891 15.45 15.45 0 0 0 2.448 1.6.57.57 0 0 1-.265 1.074zm20.041-2.257a.569.569 0 0 1-.353-1.017 16.4 16.4 0 0 0 2.137-2.006.57.57 0 1 1 .852.756 17.528 17.528 0 0 1-2.285 2.146.566.566 0 0 1-.351.122zm-24.773-1.5a.567.567 0 0 1-.428-.193 20.081 20.081 0 0 1-1.87-2.5.569.569 0 0 1 .962-.61 19.046 19.046 0 0 0 1.764 2.361.569.569 0 0 1-.427.946zm28.762-3.032a.57.57 0 0 1-.493-.855c.179-.309.347-.628.5-.947a12.872 12.872 0 0 0 .667-1.713.57.57 0 0 1 1.088.339 13.926 13.926 0 0 1-.727 1.865c-.165.346-.347.692-.541 1.027a.569.569 0 0 1-.494.287zm-32.021-2.074a.57.57 0 0 1-.519-.334 21.968 21.968 0 0 1-1.09-2.926.57.57 0 1 1 1.094-.318 21.07 21.07 0 0 0 1.033 2.773.57.57 0 0 1-.518.8zm33.858-3.673a.59.59 0 0 1-.065 0 .57.57 0 0 1-.5-.63 17.5 17.5 0 0 0 .111-1.972c0-.322-.009-.645-.026-.967a.569.569 0 0 1 .537-.6.579.579 0 0 1 .6.538c.019.343.028.689.028 1.029a18.66 18.66 0 0 1-.119 2.1.57.57 0 0 1-.567.505zm-8.185-2.515a12.223 12.223 0 0 1-2.3-.205.57.57 0 1 1 .216-1.119 11.084 11.084 0 0 0 2.084.185c.281 0 .55-.009.8-.023a.577.577 0 0 1 .6.537.57.57 0 0 1-.536.6c-.27.018-.561.028-.865.028zm3.819-.55a.57.57 0 0 1-.179-1.111 10.177 10.177 0 0 0 2.566-1.28.57.57 0 0 1 .646.939 11.314 11.314 0 0 1-2.854 1.423.575.575 0 0 1-.18.031zm-8.8-.794a.567.567 0 0 1-.339-.112 5.384 5.384 0 0 1-1.525-1.744 5.865 5.865 0 0 1-.419-.96.57.57 0 0 1 1.08-.362 4.721 4.721 0 0 0 .337.774 4.253 4.253 0 0 0 1.206 1.377.57.57 0 0 1-.34 1.027zm12.824-2.18a.57.57 0 0 1-.554-.44 13.783 13.783 0 0 0-.946-2.754.57.57 0 0 1 1.03-.487 14.563 14.563 0 0 1 .886 2.427.623.623 0 0 1 .065-.1 9.147 9.147 0 0 0 1.189-1.837c.1-.2.185-.4.266-.608a.57.57 0 1 1 1.061.416c-.092.235-.193.466-.3.689a10.339 10.339 0 0 1-1.336 2.067.991.991 0 0 0-1.229.611.578.578 0 0 1-.13.019zm-14.77-3.249a.6.6 0 0 1-.1-.009.569.569 0 0 1-.462-.66 6.331 6.331 0 0 1 1.371-3 .57.57 0 1 1 .869.736 5.194 5.194 0 0 0-1.118 2.463.57.57 0 0 1-.558.474zm12.125-2.151a.569.569 0 0 1-.422-.187 6.82 6.82 0 0 0-1.857-1.464q-.185-.1-.383-.186a.57.57 0 1 1 .465-1.04c.156.069.306.143.45.219a7.955 7.955 0 0 1 2.168 1.7.57.57 0 0 1-.422.953zm5.757-.577h-.038a.569.569 0 0 1-.531-.606q.023-.347.023-.7a11.773 11.773 0 0 0-.21-2.18.57.57 0 1 1 1.119-.212 12.877 12.877 0 0 1 .23 2.393c0 .26-.008.519-.025.775a.57.57 0 0 1-.566.534zm-14.124-1.637a.57.57 0 0 1-.172-1.113 8.468 8.468 0 0 1 3.222-.331.57.57 0 1 1-.091 1.136 7.316 7.316 0 0 0-2.786.281.574.574 0 0 1-.171.031zm13.045-4.288a.569.569 0 0 1-.525-.349 16.068 16.068 0 0 0-1.384-2.582.57.57 0 0 1 .952-.626 17.131 17.131 0 0 1 1.483 2.766.569.569 0 0 1-.525.791zm-3.309-5.059a.568.568 0 0 1-.418-.182 19.332 19.332 0 0 0-2.166-2 .57.57 0 1 1 .708-.893 20.484 20.484 0 0 1 2.294 2.118.569.569 0 0 1-.418.957z" class="cls-10" transform="translate(-1244.143 -1074.338)"/>
            <path id="Path_18720" d="M1405.249 872.3a14.359 14.359 0 1 0 14.36 14.359 14.359 14.359 0 0 0-14.36-14.359z" class="cls-2" transform="translate(-1327.26 -846.976)"/>
            <g id="Group_4695" transform="translate(57.407 16.511)">
                <circle id="Ellipse_53" cx="14.359" cy="14.359" r="14.359" class="cls-10" transform="rotate(-45 24.513 10.153)"/>
                <path id="Path_18721" d="M1484.746 895.96a6.022 6.022 0 1 0-4.909 7.9l2.419 7.158a1.046 1.046 0 0 0 1.322.654l.216-.073a1.046 1.046 0 0 0 .654-1.322l-2.419-7.158a6.032 6.032 0 0 0 2.717-7.159zm-4.322 6.023a4.322 4.322 0 1 1 2.711-5.478 4.327 4.327 0 0 1-2.71 5.478z" class="cls-3" transform="translate(-1460.091 -881.458)"/>
            </g>
        </g>
        <circle id="Ellipse_54" cx="3.266" cy="3.266" r="3.266" class="cls-10" transform="translate(404.558 415.107)"/>
        <circle id="Ellipse_55" cx="3.266" cy="3.266" r="3.266" class="cls-10" transform="translate(422.708 501.351)"/>
        <circle id="Ellipse_56" cx="2.192" cy="2.192" r="2.192" class="cls-10" transform="rotate(-22.5 1260.798 -1009.815)"/>
    </g>
</svg>
